{
  "id": "speedMetrics",
  "description": "This is a sample metric, used to text some sample metrics on a text file",
  "variables": [
    {
      "name": "movement",
      "description": "Variable holding the length of the text",
      "dimensions": [
        {
          "name": "steps",
          "type": "integer",
          "description": "this value holds the actual length of the text"
        },
        {
          "type": "location"
        }
      ]
    }
  ],
  "metrics": [{
    "language": "javascript",
    "name": "simpleMetric",
    "code": "var movementsInSession =  userSession.movement.filter(movement.col('steps').gt(0)); return movementsInSession.count();"
  },
    {
      "language": "javascript",
      "name": "simpleMetricScopes",
      "code": "return withSteps.count();"
    },
    {
      "language": "javascript",
      "name": "userSessionMetric",
      "code": "return userSession.movement.count();"
    }],
  "scopes": [
    {
      "name": "withSteps",
      "language": "javascript",
      "code" : "userSession.movement.filter(movement.col('steps').gt(0));"
    }
  ],
  "actions": [
    {
      "id": "sendNotification",
      "label": "Notify if threshold passed ",
      "description": "The notification will be sent if the metric goes beyond 30%",
      "target": "current_user",
      "type": "push_notification"
    }
  ]
}